<svg xmlns="http://www.w3.org/2000/svg" width="17" height="14" viewBox="0 0 17 14">
  <g id="グループ_2451" data-name="グループ 2451" transform="translate(-66.2 -715.227)">
    <path id="パス_4542" data-name="パス 4542" d="M83.2,715.227h-11v3H69.327l-1.19,4H66.2V727.2h2l0,.023a2,2,0,0,0,4,0l0-.023H77.2a.181.181,0,0,0,0,.023,2,2,0,0,0,4,0l0-.023h2Zm-13.127,4H72.2v3H69.18Zm.127,9a1,1,0,1,1,1-1A1,1,0,0,1,70.2,728.227Zm9,0a1,1,0,1,1,1-1A1,1,0,0,1,79.2,728.227Zm3-2.023H80.909a1.983,1.983,0,0,0-3.418,0H71.909a1.983,1.983,0,0,0-3.418,0H67.2v-2.977h6v-7h9Z" fill="#fff"/>
  </g>
</svg>
